year,country_id,country_name,eci,export_val,import_val,gdp,gdp_pc_constant,gdp_pc_constant_ppp,gdp_pc_current,gdp_pc_current_ppp
1995,eth,Ethiopia,-1.02858,567613791.98,1503448557.87,7137056860.44,125.16,567.15,131.94,414.41
1996,eth,Ethiopia,-1.20396,443933362.99,1045533508,8023901606.65,136.43,618.2,142.67,459.96
1997,eth,Ethiopia,-1.33563,677314739.03,1516378649.07,8275375764.11,136.59,618.95,139.18,468.4
1998,eth,Ethiopia,-1.34347,691917767.74,1826561374.38,7989197152.71,128.13,580.59,123.09,444.13
1999,eth,Ethiopia,-1.08673,509469534.94,1798144824.69,8401631899.76,130.95,593.38,117.83,460.4
2000,eth,Ethiopia,-1.09717,585867759.22,1497463580.7,8911851184.73,134.98,611.64,122.55,485.35
2001,eth,Ethiopia,-0.99011,514676643.17,1852656172.15,9651662440.23,142.03,643.57,118.91,522.39
2002,eth,Ethiopia,-0.933984,502175755.63,1737142895.43,9797857695.17,140.07,634.72,110.18,523.12
2003,eth,Ethiopia,-0.93631,650220966.88,2806019974.52,9586117908.93,133.16,603.4,117.6,507.24
2004,eth,Ethiopia,-1.1606,762295581.57,3228951657.46,10887180465.76,146.99,666.08,134.28,575.29
2005,eth,Ethiopia,-0.937456,1316257591.23,4507576443.2,12173919387.08,159.83,724.25,159.83,645.6
2006,eth,Ethiopia,-1.05951,1493956034.67,5358212538.53,13492918145.23,172.34,780.95,191.6,717.54
2007,eth,Ethiopia,-1.14921,1540360068.65,5935221376.48,15038669489.89,186.95,847.15,240.51,799.02
2008,eth,Ethiopia,-1.3133,1880900501.24,8620946115.52,16661124577.35,201.66,913.78,321.6,878.7
2009,eth,Ethiopia,-1.30834,1854429344.17,8003479432.43,18127717313.92,213.67,968.24,375.34,938.23
2010,eth,Ethiopia,-1.2717,2473473057.27,8552869214.49,20402844449.62,234.26,1061.51,337.4,1041.07
2011,eth,Ethiopia,-1.26465,2877589495.52,8831987236.44,22683533174.29,253.75,1149.84,350.9,1149.84
2012,eth,Ethiopia,-1.15076,3013205147.54,11510331131.9,24662742422.29,268.87,1218.33,466.65,1239.63
2013,eth,Ethiopia,-1.46341,3870828412.99,14114313573.2,47525186490.1,294.78,1335.73,505.05,1380
2014,eth,Ethiopia,-1.56239,5564432672.28,16375561335.8,55612228233.5,315.76,1430.8,573.57,1499.76
2015,eth,Ethiopia,-1.31886,5444989175.63,17600624938.8,64464547915.27,487.29,1533.11,645.47,1632.55
2016,eth,Ethiopia,-1.30394,3133646745.36,17928227397.99,73000980433.95,511.19,1608.29,712.88,1734.46
2017,eth,Ethiopia,-1.27445,2196099619.19,7995755414,80561496133.92,549.85,1729.93,767.56,1899.21
1995,eth,Ethiopia,-1.02858,567613791.98,1503448557.87,7137056860.44,125.16,567.15,131.94,414.41
1996,eth,Ethiopia,-1.20396,443933362.99,1045533508,8023901606.65,136.43,618.2,142.67,459.96
1997,eth,Ethiopia,-1.33563,677314739.03,1516378649.07,8275375764.11,136.59,618.95,139.18,468.4
1998,eth,Ethiopia,-1.34347,691917767.74,1826561374.38,7989197152.71,128.13,580.59,123.09,444.13
1999,eth,Ethiopia,-1.08673,509469534.94,1798144824.69,8401631899.76,130.95,593.38,117.83,460.4
2000,eth,Ethiopia,-1.09717,585867759.22,1497463580.7,8911851184.73,134.98,611.64,122.55,485.35
2001,eth,Ethiopia,-0.99011,514676643.17,1852656172.15,9651662440.23,142.03,643.57,118.91,522.39
2002,eth,Ethiopia,-0.933984,502175755.63,1737142895.43,9797857695.17,140.07,634.72,110.18,523.12
2003,eth,Ethiopia,-0.93631,650220966.88,2806019974.52,9586117908.93,133.16,603.4,117.6,507.24
2004,eth,Ethiopia,-1.1606,762295581.57,3228951657.46,10887180465.76,146.99,666.08,134.28,575.29
2005,eth,Ethiopia,-0.937456,1316257591.23,4507576443.2,12173919387.08,159.83,724.25,159.83,645.6
2006,eth,Ethiopia,-1.05951,1493956034.67,5358212538.53,13492918145.23,172.34,780.95,191.6,717.54
2007,eth,Ethiopia,-1.14921,1540360068.65,5935221376.48,15038669489.89,186.95,847.15,240.51,799.02
2008,eth,Ethiopia,-1.3133,1880900501.24,8620946115.52,16661124577.35,201.66,913.78,321.6,878.7
2009,eth,Ethiopia,-1.30834,1854429344.17,8003479432.43,18127717313.92,213.67,968.24,375.34,938.23
2010,eth,Ethiopia,-1.2717,2473473057.27,8552869214.49,20402844449.62,234.26,1061.51,337.4,1041.07
2011,eth,Ethiopia,-1.26465,2877589495.52,8831987236.44,22683533174.29,253.75,1149.84,350.9,1149.84
2012,eth,Ethiopia,-1.15076,3013205147.54,11510331131.9,24662742422.29,268.87,1218.33,466.65,1239.63
2013,eth,Ethiopia,-1.46341,3870828412.99,14114313573.2,47525186490.1,294.78,1335.73,505.05,1380
2014,eth,Ethiopia,-1.56239,5564432672.28,16375561335.8,55612228233.5,315.76,1430.8,573.57,1499.76
2015,eth,Ethiopia,-1.31886,5444989175.63,17600624938.8,64464547915.27,487.29,1533.11,645.47,1632.55
2016,eth,Ethiopia,-1.30394,3133646745.36,17928227397.99,73000980433.95,511.19,1608.29,712.88,1734.46
2017,eth,Ethiopia,-1.27445,2196099619.19,7995755414,80561496133.92,549.85,1729.93,767.56,1899.21
