year,country_origin_id,country_destination_id,hs92_product_id,export_val,export_val_pct
2017,ETH,BDI,ALL,58184,0.0026%
2017,ETH,CMR,ALL,174988.05,0.0080%
2017,ETH,COG,ALL,33786,0.0015%
2017,ETH,DZA,ALL,1352932,0.062%
2017,ETH,EGY,ALL,4510704.63,0.21%
2017,ETH,GHA,ALL,697594.73,0.032%
2017,ETH,KEN,ALL,18170521.1,0.83%
2017,ETH,MDG,ALL,100930,0.0046%
2017,ETH,MLI,ALL,55757.69,0.0025%
2017,ETH,MOZ,ALL,24017.31,0.0011%
2017,ETH,MRT,ALL,9095,0.00041%
2017,ETH,MUS,ALL,41833.55,0.0019%
2017,ETH,NGA,ALL,832308.88,0.038%
2017,ETH,SDN,ALL,25066797.64,1.1%
2017,ETH,SEN,ALL,27678.49,0.0013%
2017,ETH,SLE,ALL,6704.94,0.00031%
2017,ETH,SYC,ALL,51874.66,0.0024%
2017,ETH,TGO,ALL,51341,0.0023%
2017,ETH,TUN,ALL,209984.98,0.0096%
2017,ETH,TZA,ALL,178355.87,0.0081%
2017,ETH,UGA,ALL,334253.76,0.015%
2017,ETH,ZAF,ALL,8427059.79,0.38%
2017,ETH,ZMB,ALL,63326,0.0029%
2017,ETH,ARM,ALL,338456.46,0.015%
2017,ETH,AZE,ALL,357576.71,0.016%
2017,ETH,CHN,ALL,343930031.89,16%
2017,ETH,CYP,ALL,419188.63,0.019%
2017,ETH,GEO,ALL,276240,0.013%
2017,ETH,HKG,ALL,16364587.94,0.75%
2017,ETH,IDN,ALL,27817102.28,1.3%
2017,ETH,IND,ALL,43048089.78,2.0%
2017,ETH,ISR,ALL,54075153.26,2.5%
2017,ETH,JOR,ALL,21118948.46,0.96%
2017,ETH,JPN,ALL,107574388.74,4.9%
2017,ETH,KAZ,ALL,65143.9,0.0030%
2017,ETH,KGZ,ALL,1297,0.000059%
2017,ETH,KOR,ALL,59894983.44,2.7%
2017,ETH,KWT,ALL,4773280.17,0.22%
2017,ETH,LBN,ALL,2142490.05,0.098%
2017,ETH,LKA,ALL,596669.44,0.027%
2017,ETH,MMR,ALL,20923,0.00095%
2017,ETH,MNG,ALL,27059.2,0.0012%
2017,ETH,MYS,ALL,1670641.13,0.076%
2017,ETH,OMN,ALL,749516.33,0.034%
2017,ETH,PAK,ALL,24198280.71,1.1%
2017,ETH,PHL,ALL,27413,0.0012%
2017,ETH,SGP,ALL,947928,0.043%
2017,ETH,TUR,ALL,30655024,1.4%
2017,ETH,ALB,ALL,75867.17,0.0035%
2017,ETH,AUT,ALL,6555321.63,0.30%
2017,ETH,BGR,ALL,4511527.22,0.21%
2017,ETH,BIH,ALL,422022.35,0.019%
2017,ETH,BLR,ALL,1142872.44,0.052%
2017,ETH,BLX,ALL,29888774.03,1.4%
2017,ETH,CHE,ALL,287873829.53,13%
2017,ETH,CZE,ALL,7402260.95,0.34%
2017,ETH,DEU,ALL,183620534.22,8.4%
2017,ETH,DNK,ALL,2197565.14,0.10%
2017,ETH,ESP,ALL,15699859.24,0.71%
2017,ETH,EST,ALL,101243.3,0.0046%
2017,ETH,FIN,ALL,7936232.43,0.36%
2017,ETH,FRA,ALL,44720316.88,2.0%
2017,ETH,GBR,ALL,109054666.57,5.0%
2017,ETH,GRC,ALL,7222030.76,0.33%
2017,ETH,HUN,ALL,633495.03,0.029%
2017,ETH,IRL,ALL,4582479.67,0.21%
2017,ETH,ISL,ALL,163173.61,0.0074%
2017,ETH,ITA,ALL,54813599.48,2.5%
2017,ETH,LTU,ALL,400109.91,0.018%
2017,ETH,LVA,ALL,70278.25,0.0032%
2017,ETH,MDA,ALL,112802.39,0.0051%
2017,ETH,MKD,ALL,44678.91,0.0020%
2017,ETH,MNE,ALL,7428,0.00034%
2017,ETH,NLD,ALL,245108536.86,11%
2017,ETH,NOR,ALL,16206384.04,0.74%
2017,ETH,POL,ALL,4667296.45,0.21%
2017,ETH,PRT,ALL,7549491.96,0.34%
2017,ETH,ROU,ALL,560804.47,0.026%
2017,ETH,RUS,ALL,27001360.56,1.2%
2017,ETH,SRB,ALL,330983.56,0.015%
2017,ETH,SVK,ALL,5287174.44,0.24%
2017,ETH,SWE,ALL,9799545.96,0.45%
2017,ETH,UKR,ALL,2819721.99,0.13%
2017,ETH,ATG,ALL,29362.14,0.0013%
2017,ETH,BRB,ALL,3101,0.00014%
2017,ETH,CAN,ALL,10803420.12,0.49%
2017,ETH,DOM,ALL,8972.7,0.00041%
2017,ETH,HND,ALL,54168.94,0.0025%
2017,ETH,JAM,ALL,76464,0.0035%
2017,ETH,MEX,ALL,2502557.75,0.11%
2017,ETH,NIC,ALL,2246,0.00010%
2017,ETH,SLV,ALL,1299627.09,0.059%
2017,ETH,USA,ALL,264186544.96,12%
2017,ETH,AUS,ALL,22181527.3,1.0%
2017,ETH,FJI,ALL,4115.22,0.00019%
2017,ETH,NZL,ALL,3532495.59,0.16%
2017,ETH,ARG,ALL,61537.21,0.0028%
2017,ETH,BRA,ALL,320329.53,0.015%
2017,ETH,CHL,ALL,338317.14,0.015%
2017,ETH,COL,ALL,50292.33,0.0023%
2017,ETH,ECU,ALL,20790,0.00095%
2017,ETH,PER,ALL,457594,0.021%
2017,ETH,URY,ALL,11443.23,0.00052%
