DATE,RGDPNAETA666NRUG
1950-01-01,8489.603515625
1951-01-01,9709.6435546875
1952-01-01,10042.921875
1953-01-01,11004.166015625
1954-01-01,11254.404296875
1955-01-01,11849.634765625
1956-01-01,12100.96875
1957-01-01,12134.1025390625
1958-01-01,13213.2470703125
1959-01-01,12929.9580078125
1960-01-01,14281.2236328125
1961-01-01,14880.5146484375
1962-01-01,15400.69140625
1963-01-01,15984.02734375
1964-01-01,16503.63671875
1965-01-01,17524.333984375
1966-01-01,18363.19921875
1967-01-01,19507.228515625
1968-01-01,20491.91796875
1969-01-01,21106.99609375
1970-01-01,20639.75
1971-01-01,21453.62890625
1972-01-01,22727.61328125
1973-01-01,23442.078125
1974-01-01,23355.296875
1975-01-01,22509.775390625
1976-01-01,22794.484375
1977-01-01,22535.208984375
1978-01-01,21576.740234375
1979-01-01,23267.13671875
1980-01-01,24754.953125
1981-01-01,25719.96484375
1982-01-01,26063.583984375
1983-01-01,27128.642578125
1984-01-01,27303.810546875
1985-01-01,25114.9765625
1986-01-01,26950.98046875
1987-01-01,31363.8515625
1988-01-01,31887.43359375
1989-01-01,31976.966796875
1990-01-01,31610.927734375
1991-01-01,29329.28515625
1992-01-01,26716.814453125
1993-01-01,30287.0078125
1994-01-01,31342.943359375
1995-01-01,33261.45703125
1996-01-01,37762.62109375
1997-01-01,38835.24609375
1998-01-01,37264.21875
1999-01-01,39187.94921875
2000-01-01,41567.77734375
2001-01-01,45018.5
2002-01-01,45700.3359375
2003-01-01,44712.71484375
2004-01-01,50781.44921875
2005-01-01,56783.07421875
2006-01-01,62935.4375
2007-01-01,70145.25
2008-01-01,77712.984375
2009-01-01,84553.5859375
2010-01-01,95165.515625
2011-01-01,107684.859375
2012-01-01,116997.2578125
2013-01-01,129378.1875
2014-01-01,142657.21875
2015-01-01,157473.90625
2016-01-01,169381.734375
2017-01-01,188206.234375
