﻿The wind measurement campaign that has generated this data was commissioned by The World Bank with funding from the Energy Sector Management Assistance Program (ESMAP). 
The data is made freely available under The World Bank’s open data policy.
More information at: http://www.esmap.org/RE_Mapping

LOCATION
Site Name : ETH_Wind_Deday_Afar
Equipment : 80 m Square Guyed Lattice Tower
Host Institution : 
Elevation (m) : 470
Latitude (positive North,decimal degrees) : 11.882468
Longitude (positive East,decimal degrees) : 41.566796

TIME
Time Zone : UTC+0:00
10 minute averaged data, computed from at least 1 Hz observations
Original data temporal resolution : 1 sec.

SERVICE PROVIDER
Company : 3E
Address : 6 Quai à la Chaux - 1000 Bruxelles - Belgium
Tel : +32 (0) 2 217 58 68
Web : www.3e.eu
Email : info@3e.eu

SENSOR SUMMARY
Sensor manufacturer;Height;Orientation;Sensor Type;Model;Start Date;End Date;Serial Number;Slope;Offset
Thies;80m;0°;anemometer;FCA;20190505;-;12179369;0.0463;0.2606
Thies;80m;180°;anemometer;FCA;20190505;-;12179370;0.04618;0.2147
Thies;78m;180°;wind_vane;10k;20190505;-;11170158;1;0
NRG;77m;-;thermometer;110S Temp;20190505;-;;55.55;-86.38
Thies;60m;0°;anemometer;FCA;20190505;-;12179371;0.04595;0.2805
Thies;58m;180°;wind_vane;10k;20190505;-;11170159;1;0
Thies;40m;0°;anemometer;FCA;20190505;-;12179372;0.04599;0.2576
Thies;20m;0°;anemometer;FCA;20190505;-;12179373;0.04609;0.2336
NRG;10m;-;thermometer;110S Temp;20190505;-;;55.55;-86.38
NRG;6m;-;barometer;BP20 Baro;20190505;-;180533678;217.9;107.2
NRG;6m;-;relative_humidity_sensor;RH5X Humi;20190505;-;;20;0

FIELDS
time : Date and Time according to ISO8601 (YYYY-MM-DD hh:mm)
aX_wind_speed_min : Min Wind Speed (m/s)
aX_wind_speed_max : Max Wind Speed (m/s)
aX_wind_speed_mean : Mean Wind Speed (m/s)
aX_wind_speed_stddev : Wind Speed (m/s) - standard deviation
dX_wind_direction_mean : Wind direction in degrees North, counted clockwise
dX_wind_direction_stddev : Wind direction in degrees North, counted clockwise-standard deviation
pX_air_pressure_mean : Mean sea level air pressure in hPa
pX_air_pressure_stddev : Mean sea level air pressure in hPa- standard deviation
hX_relative_humidity_mean : Relative Humidity (%) -mean value
hX_relative_humidity_stddev : Relative Humidity (%) -standard deviation
tX_temperature_mean : Air Temperature (Deg C)
tX_temperature_stddev : Air Temperature (Deg C)
aX_turbulence_intensity : 10-minute standard deviation of the wind speed divided by the mean wind speed during that same time interval
Comments:
    - noValue : nan
    - missing data : no data recorded over the period
    - erroneous - all zeros : all aggregators (e.g. mean, min, max, stddev) equals to zero. Data likely incorrect
    - flat line : no change of the mean value over a certain period. Data likely incorrect
    - out of range : data out of typical range for the given parameter

Note
X = anemometer height (m); the entries are specific to each anemometer with X indicating its height. If two anemometers
 are situated at the same height, these will be differentiated by their type of sensor.
Column "Comments" stores wording coming from a standardized taxonomy of data exclusion types, such as:
Missing Data/Erroneous/Iced/Maintenance Downtime/Suspect/Sensor Failure/etc.
